tb_directed/nexuslite_min.vcd
$date
	Wed Jul  1 14:56:39 2026
$end
$version
	Icarus Verilog
$end
$timescale
	1ps
$end
$scope module tb_nexuslite_min $end
$var wire 1 ! WREADY $end
$var wire 1 " RVALID $end
$var wire 2 # RRESP [1:0] $end
$var wire 32 $ RDATA [31:0] $end
$var wire 1 % BVALID $end
$var wire 2 & BRESP [1:0] $end
$var wire 1 ' AWREADY $end
$var wire 1 ( ARREADY $end
$var parameter 32 ) ADDR_WIDTH $end
$var parameter 32 * CLK_PERIOD $end
$var parameter 32 + DATA_WIDTH $end
$var reg 1 , ACLK $end
$var reg 4 - ARADDR [3:0] $end
$var reg 1 . ARESETN $end
$var reg 1 / ARVALID $end
$var reg 4 0 AWADDR [3:0] $end
$var reg 1 1 AWVALID $end
$var reg 1 2 BREADY $end
$var reg 1 3 RREADY $end
$var reg 32 4 WDATA [31:0] $end
$var reg 1 5 WVALID $end
$var integer 32 6 fail_count [31:0] $end
$var integer 32 7 pass_count [31:0] $end
$scope module dut $end
$var wire 1 , ACLK $end
$var wire 4 8 ARADDR [3:0] $end
$var wire 1 . ARESETN $end
$var wire 1 / ARVALID $end
$var wire 4 9 AWADDR [3:0] $end
$var wire 1 1 AWVALID $end
$var wire 1 2 BREADY $end
$var wire 1 3 RREADY $end
$var wire 32 : WDATA [31:0] $end
$var wire 1 5 WVALID $end
$var parameter 32 ; ADDR_WIDTH $end
$var parameter 32 < DATA_WIDTH $end
$var reg 1 ( ARREADY $end
$var reg 1 ' AWREADY $end
$var reg 2 = BRESP [1:0] $end
$var reg 1 % BVALID $end
$var reg 32 > RDATA [31:0] $end
$var reg 2 ? RRESP [1:0] $end
$var reg 1 " RVALID $end
$var reg 1 ! WREADY $end
$var reg 4 @ ar_addr_captured [3:0] $end
$var reg 1 A ar_captured $end
$var reg 4 B aw_addr_captured [3:0] $end
$var reg 1 C aw_captured $end
$var reg 1 D r_captured $end
$var reg 32 E r_data_captured [31:0] $end
$var reg 1 F rd_state $end
$var reg 32 G reg_data [31:0] $end
$var reg 1 H w_captured $end
$var reg 32 I w_data_captured [31:0] $end
$var reg 1 J wr_state $end
$upscope $end
$scope task read_check $end
$upscope $end
$scope task write_same_cycle $end
$upscope $end
$scope task write_split_cycle $end
$upscope $end
$upscope $end
$enddefinitions $end
$comment Show the parameter values. $end
$dumpall
b100000 <
b100 ;
b100000 +
b1010 *
b100 )
$end
#0
$dumpvars
0J
b0 I
0H
b0 G
0F
b0 E
0D
0C
b0 B
0A
b0 @
b0 ?
bx >
b0 =
b0 :
b0 9
b0 8
b0 7
b0 6
05
b0 4
03
02
01
b0 0
0/
0.
b0 -
0,
0(
0'
b0 &
0%
bx $
b0 #
0"
0!
$end
#5000
1,
#10000
0,
#15000
1,
#20000
0,
#25000
1.
1,
#30000
0,
#35000
1,
#40000
0,
#45000
12
15
b11011110101011011011111011101111 4
b11011110101011011011111011101111 :
11
1,
#50000
0,
#55000
1%
1J
b11011110101011011011111011101111 G
1!
0H
b11011110101011011011111011101111 I
1'
0C
05
01
1,
#60000
0,
#65000
0J
0%
02
b1 7
1,
#70000
0,
#75000
0!
0'
1,
#80000
0,
#85000
13
1/
1,
#90000
0,
#95000
1F
1"
b11011110101011011011111011101111 $
b11011110101011011011111011101111 >
1(
0/
1,
#100000
0,
#105000
0F
0"
03
b10 7
1,
#110000
0,
#115000
0(
1,
#120000
0,
#125000
12
11
1,
#130000
0,
#135000
1'
1C
01
1,
#140000
0,
#145000
0'
1,
#150000
0,
#155000
15
b11001010111111101111000000001101 4
b11001010111111101111000000001101 :
1,
#160000
0,
#165000
0C
1%
1J
b11001010111111101111000000001101 G
1!
0H
b11001010111111101111000000001101 I
05
1,
#170000
0,
#175000
0J
0%
02
b11 7
1,
#180000
0,
#185000
0!
1,
#190000
0,
#195000
13
1/
1,
#200000
0,
#205000
1F
1"
b11001010111111101111000000001101 $
b11001010111111101111000000001101 >
1(
0/
1,
#210000
0,
#215000
0F
0"
03
b100 7
1,
#220000
0,
#225000
0(
1,
